model,ticker,iscore
ALV.AGG LRG ADV SHARED,AQMNX,0
ALV.AGG LRG ADV SHARED,CVMIX,0
ALV.AGG LRG ADV SHARED,DEMIX,1
ALV.AGG LRG ADV SHARED,GDSTX,1
ALV.AGG LRG ADV SHARED,HLIEX,1
ALV.AGG LRG ADV SHARED,JGASX,1
ALV.AGG LRG ADV SHARED,JVLIX,1
ALV.AGG LRG ADV SHARED,MDIJX,1
ALV.AGG LRG ADV SHARED,MEIIX,1
ALV.AGG LRG ADV SHARED,PBCKX,1
ALV.AGG LRG ADV SHARED,PJFZX,0
ALV.AGG LRG NQ SHARED,AQMNX,0
ALV.AGG LRG NQ SHARED,DEO,0
ALV.AGG LRG NQ SHARED,FERIX,0
ALV.AGG LRG NQ SHARED,GDX,0
ALV.AGG LRG NQ SHARED,IJR,1
ALV.AGG LRG NQ SHARED,JVASX,1
ALV.AGG LRG NQ SHARED,MDIJX,1
ALV.AGG LRG NQ SHARED,PRF,1
ALV.AGG LRG NQ SHARED,QUAL,1
ALV.AGG LRG NQ SHARED,SCHG,1
ALV.AGG LRG NQ SHARED,VONV,1
ALV.AGG LRG NQ SHARED,WFC,0
ALV.AGG LRG Q SHARED,AQMNX,0
ALV.AGG LRG Q SHARED,DEO,0
ALV.AGG LRG Q SHARED,FERIX,0
ALV.AGG LRG Q SHARED,GDSTX,1
ALV.AGG LRG Q SHARED,GDX,0
ALV.AGG LRG Q SHARED,JGASX,1
ALV.AGG LRG Q SHARED,JVASX,1
ALV.AGG LRG Q SHARED,MDIJX,1
ALV.AGG LRG Q SHARED,NTR,0
ALV.AGG LRG Q SHARED,PRF,1
ALV.AGG LRG Q SHARED,QUAL,1
ALV.AGG LRG Q SHARED,VTV,1
ALV.AGG LRG Q SHARED,WFC,0
ALV.AGG SML ADV SHARED,AQMNX,0
ALV.AGG SML ADV SHARED,DEMIX,1
ALV.AGG SML ADV SHARED,HGIIX,1
ALV.AGG SML ADV SHARED,HLIEX,1
ALV.AGG SML ADV SHARED,JGASX,1
ALV.AGG SML ADV SHARED,MDIJX,1
ALV.AGG SML ADV SHARED,MEIIX,1
ALV.AGG SML ADV SHARED,PBCKX,1
ALV.AGG SML SHARED,BEXFX,1
ALV.AGG SML SHARED,GDSTX,1
ALV.AGG SML SHARED,GFIRX,0
ALV.AGG SML SHARED,MDIJX,1
ALV.AGG SML SHARED,PRF,1
ALV.AGG SML SHARED,QUAL,1
ALV.AGG SML SHARED,SCHG,0
ALV.CON LRG NQ B SHARED,ACVKX,0
ALV.CON LRG NQ B SHARED,EILMX,1
ALV.CON LRG NQ B SHARED,EMOIX,0
ALV.CON LRG NQ B SHARED,IAU,0
ALV.CON LRG NQ B SHARED,MAMTX,1
ALV.CON LRG NQ B SHARED,ORSYX,1
ALV.CON LRG NQ B SHARED,SPHQ,1
ALV.CON LRG NQ B SHARED,STRIX,1
ALV.CON LRG NQ B SHARED,VYM,1
ALV.CON LRG NQ B SHARED,WITIX,1
ALV.CON LRG NQ SHARED,ACVKX,0
ALV.CON LRG NQ SHARED,EILMX,1
ALV.CON LRG NQ SHARED,EMOIX,1
ALV.CON LRG NQ SHARED,IAU,0
ALV.CON LRG NQ SHARED,MDIJX,1
ALV.CON LRG NQ SHARED,ORSYX,1
ALV.CON LRG NQ SHARED,QUAL,1
ALV.CON LRG NQ SHARED,STRIX,0
ALV.CON LRG NQ SHARED,TLT,0
ALV.CON LRG NQ SHARED,WITIX,1
ALV.CON LRG Q SHARED,ACVKX,0
ALV.CON LRG Q SHARED,IAU,0
ALV.CON LRG Q SHARED,LDLFX,1
ALV.CON LRG Q SHARED,MDIJX,1
ALV.CON LRG Q SHARED,PDBZX,1
ALV.CON LRG Q SHARED,QLTA,1
ALV.CON LRG Q SHARED,QUAL,1
ALV.CON LRG Q SHARED,TLT,0
ALV.CON LRG Q SHARED,TSIIX,1
ALV.CON LRG Q SHARED,WACPX,1
ALV.CON SML SHARED,ACVKX,0
ALV.CON SML SHARED,AQMNX,1
ALV.CON SML SHARED,LDLFX,1
ALV.CON SML SHARED,OIDYX,1
ALV.CON SML SHARED,PDBZX,1
ALV.CON SML SHARED,PRF,1
ALV.CON SML SHARED,QUAL,1
ALV.CON SML SHARED,SHY,1
ALV.CON SML SHARED,TSIIX,1
ALV.MOD LRG ADV SHARED,ACIIX,0
ALV.MOD LRG ADV SHARED,AQMNX,1
ALV.MOD LRG ADV SHARED,FEDIX,1
ALV.MOD LRG ADV SHARED,HFAIX,0
ALV.MOD LRG ADV SHARED,HGIIX,1
ALV.MOD LRG ADV SHARED,JGASX,1
ALV.MOD LRG ADV SHARED,LDLFX,0
ALV.MOD LRG ADV SHARED,MAHQX,1
ALV.MOD LRG ADV SHARED,MDIJX,1
ALV.MOD LRG ADV SHARED,MEIIX,0
ALV.MOD LRG ADV SHARED,PDBZX,0
ALV.MOD LRG ADV SHARED,TSIIX,0
ALV.MOD LRG NQ B SHARED,ACVKX,0
ALV.MOD LRG NQ B SHARED,AQMNX,0
ALV.MOD LRG NQ B SHARED,FAARX,1
ALV.MOD LRG NQ B SHARED,FERIX,0
ALV.MOD LRG NQ B SHARED,IAU,0
ALV.MOD LRG NQ B SHARED,OIDYX,1
ALV.MOD LRG NQ B SHARED,ORSYX,0
ALV.MOD LRG NQ B SHARED,QUAL,0
ALV.MOD LRG NQ B SHARED,SCHG,1
ALV.MOD LRG NQ B SHARED,STRIX,1
ALV.MOD LRG NQ B SHARED,TLT,0
ALV.MOD LRG NQ B SHARED,VUG,1
ALV.MOD LRG NQ B SHARED,VYM,1
ALV.MOD LRG NQ SHARED,AQMNX,0
ALV.MOD LRG NQ SHARED,EEMV,1
ALV.MOD LRG NQ SHARED,FSHYX,1
ALV.MOD LRG NQ SHARED,IAU,0
ALV.MOD LRG NQ SHARED,MDIJX,1
ALV.MOD LRG NQ SHARED,PRF,1
ALV.MOD LRG NQ SHARED,QUAL,1
ALV.MOD LRG NQ SHARED,STRIX,0
ALV.MOD LRG NQ SHARED,TLT,0
ALV.MOD LRG Q ESG SHARED,AOGPX,1
ALV.MOD LRG Q ESG SHARED,CDSIX,1
ALV.MOD LRG Q ESG SHARED,CSVIX,1
ALV.MOD LRG Q ESG SHARED,ESGD,1
ALV.MOD LRG Q ESG SHARED,MVIIX,1
ALV.MOD LRG Q ESG SHARED,PRBLX,0
ALV.MOD LRG Q ESG SHARED,PWGIX,1
ALV.MOD LRG Q ESG SHARED,TCPYX,1
ALV.MOD LRG Q ESG SHARED,TLT,0
ALV.MOD LRG Q SHARED,ACIIX,1
ALV.MOD LRG Q SHARED,AQMNX,0
ALV.MOD LRG Q SHARED,BABA,0
ALV.MOD LRG Q SHARED,IAU,0
ALV.MOD LRG Q SHARED,MAHQX,1
ALV.MOD LRG Q SHARED,MDIJX,1
ALV.MOD LRG Q SHARED,PXH,0
ALV.MOD LRG Q SHARED,QLTA,1
ALV.MOD LRG Q SHARED,QUAL,1
ALV.MOD LRG Q SHARED,TLT,0
ALV.MOD LRG Q SHARED,TSIIX,1
ALV.MOD LRG Q SHARED,WACPX,0
ALV.MOD SML ADV SHARED,ACIIX,1
ALV.MOD SML ADV SHARED,AQMNX,1
ALV.MOD SML ADV SHARED,FEPIX,1
ALV.MOD SML ADV SHARED,GSFTX,1
ALV.MOD SML ADV SHARED,JGASX,1
ALV.MOD SML ADV SHARED,LDLFX,1
ALV.MOD SML ADV SHARED,OIDYX,1
ALV.MOD SML ADV SHARED,PDBZX,1
ALV.MOD SML SHARED,GFIRX,1
ALV.MOD SML SHARED,OIDYX,1
ALV.MOD SML SHARED,PRF,1
ALV.MOD SML SHARED,QUAL,1
ALV.MOD SML SHARED,TSIIX,1
ALV.MOD SML SHARED,WACPX,1
ALV.MODAGG LRG ADV SHARED,ACIIX,1
ALV.MODAGG LRG ADV SHARED,AQMNX,0
ALV.MODAGG LRG ADV SHARED,DEMIX,1
ALV.MODAGG LRG ADV SHARED,GDSTX,1
ALV.MODAGG LRG ADV SHARED,HFAIX,1
ALV.MODAGG LRG ADV SHARED,JGASX,1
ALV.MODAGG LRG ADV SHARED,MAHQX,1
ALV.MODAGG LRG ADV SHARED,MDIJX,1
ALV.MODAGG LRG ADV SHARED,MEIIX,1
ALV.MODAGG LRG ADV SHARED,PJFZX,1
ALV.MODAGG LRG ADV SHARED,TSIIX,1
ALV.MODAGG LRG NQ SHARED,AQMNX,0
ALV.MODAGG LRG NQ SHARED,FERIX,0
ALV.MODAGG LRG NQ SHARED,FSHYX,1
ALV.MODAGG LRG NQ SHARED,GDX,0
ALV.MODAGG LRG NQ SHARED,MDIJX,1
ALV.MODAGG LRG NQ SHARED,PRF,1
ALV.MODAGG LRG NQ SHARED,QUAL,1
ALV.MODAGG LRG NQ SHARED,SCHG,1
ALV.MODAGG LRG NQ SHARED,TLT,0
ALV.MODAGG LRG NQ SHARED,VTV,1
ALV.MODAGG LRG Q ESG SHARED,AOGPX,1
ALV.MODAGG LRG Q ESG SHARED,CDSIX,1
ALV.MODAGG LRG Q ESG SHARED,CSVIX,1
ALV.MODAGG LRG Q ESG SHARED,ESGD,1
ALV.MODAGG LRG Q ESG SHARED,MVIIX,1
ALV.MODAGG LRG Q ESG SHARED,PRBLX,1
ALV.MODAGG LRG Q ESG SHARED,PWGIX,1
ALV.MODAGG LRG Q ESG SHARED,TCPYX,1
ALV.MODAGG LRG Q ESG SHARED,TLT,0
ALV.MODAGG LRG Q SHARED,AQMNX,0
ALV.MODAGG LRG Q SHARED,FERIX,0
ALV.MODAGG LRG Q SHARED,GDX,0
ALV.MODAGG LRG Q SHARED,JGASX,1
ALV.MODAGG LRG Q SHARED,MAHQX,1
ALV.MODAGG LRG Q SHARED,MDIJX,1
ALV.MODAGG LRG Q SHARED,PRF,1
ALV.MODAGG LRG Q SHARED,QUAL,1
ALV.MODAGG LRG Q SHARED,TLT,0
ALV.MODAGG LRG Q SHARED,TSIIX,1
ALV.MODAGG LRG Q SHARED,VTV,1
ALV.MODAGG SML ADV SHARED,ACIIX,1
ALV.MODAGG SML ADV SHARED,AQMNX,0
ALV.MODAGG SML ADV SHARED,HFAIX,1
ALV.MODAGG SML ADV SHARED,JGASX,1
ALV.MODAGG SML ADV SHARED,MAHQX,1
ALV.MODAGG SML ADV SHARED,MEIIX,1
ALV.MODAGG SML ADV SHARED,OIDYX,1
ALV.MODAGG SML ADV SHARED,PJFZX,1
ALV.MODAGG SML SHARED,BEXFX,1
ALV.MODAGG SML SHARED,GFIRX,0
ALV.MODAGG SML SHARED,MAHQX,1
ALV.MODAGG SML SHARED,MDIJX,1
ALV.MODAGG SML SHARED,MEIIX,1
ALV.MODAGG SML SHARED,PRF,1
ALV.MODAGG SML SHARED,QUAL,1
ALV.MODCON LRG ADV SHARED,ACIIX,1
ALV.MODCON LRG ADV SHARED,AQMNX,0
ALV.MODCON LRG ADV SHARED,DDVIX,1
ALV.MODCON LRG ADV SHARED,EEMV,1
ALV.MODCON LRG ADV SHARED,HFAIX,1
ALV.MODCON LRG ADV SHARED,JGASX,1
ALV.MODCON LRG ADV SHARED,LDLFX,1
ALV.MODCON LRG ADV SHARED,MDIJX,1
ALV.MODCON LRG ADV SHARED,PDBZX,1
ALV.MODCON LRG ADV SHARED,PJFZX,1
ALV.MODCON LRG ADV SHARED,TSIIX,1
ALV.MODCON LRG ADV SHARED,WACPX,1
ALV.MODCON LRG NQ B SHARED,ACVKX,0
ALV.MODCON LRG NQ B SHARED,AQMNX,0
ALV.MODCON LRG NQ B SHARED,DGRW,1
ALV.MODCON LRG NQ B SHARED,EMOIX,1
ALV.MODCON LRG NQ B SHARED,IAU,0
ALV.MODCON LRG NQ B SHARED,OIDYX,1
ALV.MODCON LRG NQ B SHARED,ORSYX,0
ALV.MODCON LRG NQ B SHARED,STRIX,1
ALV.MODCON LRG NQ B SHARED,TLT,0
ALV.MODCON LRG NQ B SHARED,VYM,1
ALV.MODCON LRG NQ SHARED,ACVKX,0
ALV.MODCON LRG NQ SHARED,AQMNX,0
ALV.MODCON LRG NQ SHARED,EILMX,1
ALV.MODCON LRG NQ SHARED,IAU,0
ALV.MODCON LRG NQ SHARED,MDIJX,1
ALV.MODCON LRG NQ SHARED,ORSYX,0
ALV.MODCON LRG NQ SHARED,PRF,1
ALV.MODCON LRG NQ SHARED,QUAL,1
ALV.MODCON LRG NQ SHARED,SMMYX,1
ALV.MODCON LRG NQ SHARED,STRIX,1
ALV.MODCON LRG Q ESG SHARED,AOGPX,1
ALV.MODCON LRG Q ESG SHARED,CDSIX,1
ALV.MODCON LRG Q ESG SHARED,CSVIX,1
ALV.MODCON LRG Q ESG SHARED,MVIIX,1
ALV.MODCON LRG Q ESG SHARED,PRBLX,0
ALV.MODCON LRG Q ESG SHARED,PWGIX,1
ALV.MODCON LRG Q ESG SHARED,TCPYX,1
ALV.MODCON LRG Q ESG SHARED,TLT,0
ALV.MODCON LRG Q SHARED,ACVKX,0
ALV.MODCON LRG Q SHARED,GFIRX,1
ALV.MODCON LRG Q SHARED,IAU,0
ALV.MODCON LRG Q SHARED,MAHQX,1
ALV.MODCON LRG Q SHARED,MDIJX,1
ALV.MODCON LRG Q SHARED,PRF,1
ALV.MODCON LRG Q SHARED,PXH,1
ALV.MODCON LRG Q SHARED,QLTA,1
ALV.MODCON LRG Q SHARED,QUAL,1
ALV.MODCON LRG Q SHARED,TLT,0
ALV.MODCON LRG Q SHARED,TSIIX,1
ALV.MODCON SML SHARED,AQMNX,1
ALV.MODCON SML SHARED,LDLFX,1
ALV.MODCON SML SHARED,OIDYX,1
ALV.MODCON SML SHARED,PDBZX,1
ALV.MODCON SML SHARED,PRF,1
ALV.MODCON SML SHARED,QUAL,1
ALV.MODCON SML SHARED,TSIIX,1
ALV.SLEEVE STOCKS SHARED,ACM,0
ALV.SLEEVE STOCKS SHARED,ADBE,0
ALV.SLEEVE STOCKS SHARED,ADSK,0
ALV.SLEEVE STOCKS SHARED,ATVI,0
ALV.SLEEVE STOCKS SHARED,BAC,0
ALV.SLEEVE STOCKS SHARED,FANUY,0
ALV.SLEEVE STOCKS SHARED,FFIV,0
ALV.SLEEVE STOCKS SHARED,PPC,0
ALV.SLEEVE STOCKS SHARED,ROK,0
ALV.SLEEVE STOCKS SHARED,TCEHY,0
ALV.SLEEVE STOCKS SHARED,TSM,0
ALV.SLEEVE STOCKS SHARED,VRTX,0
