Fund,Name,NumModels,AvgWgt,HeldSince,TrendingScore,ValueScore,BestWorstTrending,BestWorstValue,Forecast,Importance,ComplexityRating,Complexity,SecurityType,TrendingLabel,ClientAssets,Group,Focus
PRF,Invesco FTSE RAFI US 1000 ETF,15,7.9,2018-04-26,-0.4,-2.4,0.0,0.0,4.0,1,A,Leverage,ETF,Neutral,19.5,Equity-US,Value
QUAL,iShares Edge MSCI USA Quality Factor ETF,16,7.8,2018-04-26,1.6,-2.4,0.0,-1.0,3.8,1,A,No Complex Elements Observed,ETF,Positive,24.3,Equity-US,Blend
MDIJX,MFS International Diversification Fund,16,6.9,2018-04-26,-1.8,0.0,-0.2,0.0,6.6,1,A,"Leverage, Underlying Pooled Vehicle",MF,Negative,18.0,Equity-International,Developed
TLT,iShares 20+ Year Treasury Bond ETF,8,8.0,2020-04-23,2.5,0.0,1.0,0.0,-0.0,1,A,No Complex Elements Observed,ETF,Strong,14.8,Fixed Income,LT US Treasury
PRBLX,Parnassus Core Equity Fund,5,9.7,2019-07-11,1.7,0.0,0.1,0.0,3.7,2,A,No Complex Elements Observed,MF,Positive,6.8,Equity-US,Blend
AQMNX,AQR Managed Futures Strategy Fund,15,3.5,2020-03-12,2.4,0.0,1.0,0.0,0.5,1,E,"Commodity Fut, Equity Fut, FX Forwards, FX Futures, Int Rate Futures, Int Rate Swap, Leverage, Total Return Swap, Treas Futures",MF,Strong,10.3,Alternatives,Managed Futures
ORSYX,Invesco Oppenheimer Short Term Municipal Fund,5,9.4,2019-01-15,1.9,0.0,0.5,0.0,1.9,2,A,No Complex Elements Observed,MF,Strong,6.3,Fixed Income,Fixed Income-US-Intermediate/Long Term Investment Grade
WITIX,Wells Fargo Intermediate Tax/AMT-Free Fund,5,8.4,2019-01-15,0.3,0.0,0.0,0.0,2.2,3,A,No Complex Elements Observed,MF,Neutral,5.9,Fixed Income,Fixed Income-US-Intermediate/Long Term Investment Grade
VTI,Vanguard Total Stock Market ETF,7,7.4,2018-12-03,1.4,-2.4,0.0,-1.0,3.6,1,B,"Equity Fut, Leverage, Total Return Swap",ETF,Positive,9.9,Equity-US,Blend
MTUM,iShares Edge MSCI USA Momentum Factor ETF,6,6.1,2018-04-26,2.2,-2.4,1.0,-1.0,3.2,4,A,No Complex Elements Observed,ETF,Strong,2.3,Equity-US,Growth
SHY,iShares 1-3 Year Treasury Bond ETF,7,5.1,2020-02-20,2.5,0.0,1.0,0.0,1.9,2,A,No Complex Elements Observed,ETF,Strong,9.0,Fixed Income,ST US Treasury
FSHYX,Nuveen Short Term Municipal Bond Fund,5,7.1,2019-01-15,0.1,0.0,0.0,0.0,1.8,3,A,No Complex Elements Observed,MF,Neutral,4.2,Fixed Income,Fixed Income-US-Short/Intermediate Term Investment Grade
EES,WisdomTree US SmallCap Fund,12,3.4,2018-11-26,-2.4,0.0,-1.0,0.0,3.9,3,A,Underlying Pooled Vehicle,ETF,Weak,4.0,Equity-US,Small Mid Cap
TCPYX,Touchstone Impact Bond Fund,2,15.4,2019-03-22,2.4,0.0,1.0,0.0,1.4,8,C,"Structured (ABS, MBS, CMBS)",MF,Strong,0.0,Fixed Income,Core
SCHG,Schwab U.S. Large-Cap Growth ETF,4,11.8,2019-05-21,2.3,-2.4,1.0,-1.0,4.4,8,A,Equity Fut,ETF,Strong,0.0,Equity-US,Growth
JGASX,JPMorgan Growth Advantage Fund,6,8.2,2018-04-26,2.4,-2.4,1.0,-1.0,4.1,2,A,No Complex Elements Observed,MF,Strong,9.1,Equity-US,Growth
SMMYX,Western Asset Managed Municipals Fund,4,6.6,2019-01-15,-2.3,0.0,-1.0,0.0,1.7,3,A,Leverage,MF,Weak,2.6,Fixed Income,Fixed Income-U.S.-municipal bonds
IAU,iShares Gold Trust,9,3.2,2020-01-28,2.4,0.0,1.0,0.0,3.2,1,B,No Complex Elements Observed,ETF,Strong,10.6,Alternatives,Gold
VTV,Vanguard Value ETF,5,7.4,2018-12-03,-0.7,0.0,0.0,0.0,3.6,3,A,"Equity Fut, Leverage",ETF,Neutral,3.9,Equity-US,Value
FERIX,Fidelity Advisor Emerging Asia Fund,7,3.5,2020-03-31,2.3,0.0,1.0,0.0,9.6,2,B,"FX Forwards, Leverage",MF,Strong,6.4,Equity-International,Asian Pacific Region
MVIIX,Praxis Value Index Fund,2,11.5,2019-03-22,0.1,0.0,0.0,0.0,3.1,8,A,No Complex Elements Observed,MF,Neutral,0.0,Equity-US,Large-cap
EMOIX,Eaton Vance Municipal Opportunities Fund,4,5.7,2019-03-27,-2.4,0.0,-1.0,0.0,1.8,4,A,No Complex Elements Observed,MF,Weak,1.9,Fixed Income,Fixed Income-U.S.-Municipal Bonds
CDSIX,Calvert Short-Duration Income Fund,2,11.0,2019-03-22,-2.3,0.0,-1.0,0.0,3.1,8,D,"Bank Loan, Leverage, Structured (ABS, MBS, CMBS), Treas Futures",MF,Negative,0.0,Fixed Income,Short Duration
MEIIX,MFS Value Fund,2,10.9,2020-03-03,0.0,-2.4,0.0,0.0,4.1,8,A,Leverage,MF,Neutral,0.0,Equity-US,Value
STRIX,Wells Fargo Strategic Municipal Bond Fund,4,5.4,2019-03-21,-1.0,0.0,0.0,0.0,2.2,5,B,"Leverage, Structured (ABS, MBS, CMBS), Treas Futures, Underlying Pooled Vehicle",MF,Neutral,0.4,Fixed Income,Fixed Income-US-Intermediate/Long Term Investment Grade
LDLFX,Lord Abbett Short Duration Income Fund,5,11.4,2018-06-12,-2.4,0.0,-1.0,0.0,2.2,2,D,"Bank Loan, FI Futures, Leverage, Structured (ABS, MBS, CMBS), Treas Futures",MF,Weak,8.8,Fixed Income,Short Duration
WACPX,Western Asset Core Plus Bond Fund,5,10.0,2018-04-26,2.4,0.0,1.0,0.0,1.9,1,E,"Bank Loan, Crdt Dflt Swap, FX Futures, FX Swap, Int Rate Futures, Int Rate Swap, FI Futures, Leverage, Option - Call, Option - Put, Structured (ABS, MBS, CMBS), Treas Futures",MF,Strong,19.0,Fixed Income,Core
MAHQX,BlackRock Total Return Fund,2,9.3,2018-06-12,2.4,0.0,1.0,0.0,1.9,2,E,"Bank Loan, Crdt Dflt Swap, Equity Fut, Equity Linked Note, Fgn Subsidiary, FX Forwards, Int Rate Futures, Int Rate Swap, FI Futures, Leverage, Option - Call, Option - Put, Structured (ABS, MBS, CMBS), Swaptions, Total Return Swap, Treas Futures, Underlying Pooled Vehicle",MF,Strong,6.7,Fixed Income,Core
TSIIX,Thornburg Strategic Income Fund,3,6.0,2018-06-12,-2.3,0.0,-1.0,0.0,1.6,1,D,"Bank Loan, Option - Call, Structured (ABS, MBS, CMBS), Underlying Pooled Vehicle",MF,Negative,9.4,Fixed Income,Multi-Sector
EEMV,iShares Edge MSCI Min Vol Emerging Markets ETF,4,4.3,2018-11-26,-1.6,1.6,-0.1,1.0,6.0,3,A,No Complex Elements Observed,ETF,Weak,3.4,Equity-International,Emerging
MFEIX,MFS Growth Fund,2,8.4,2020-03-03,2.3,0.0,1.0,0.0,3.5,8,A,Leverage,MF,Strong,0.0,Equity-US,Growth
VUG,Vanguard Growth ETF,2,8.3,2018-11-26,2.3,0.0,1.0,0.0,3.8,4,A,"Equity Fut, Leverage",ETF,Strong,0.6,Equity-US,Growth
PIMSX,Virtus Newfleet Multi-Sector Short Term Bond Fund,3,9.5,2018-11-01,-2.3,0.0,-1.0,0.0,3.4,2,D,"Bank Loan, Structured (ABS, MBS, CMBS)",MF,Weak,8.6,Fixed Income,Short Duration
IXUS,iShares Core MSCI Total International Stock ETF,3,5.2,2018-11-26,-2.2,0.1,-1.0,1.0,6.7,4,B,"Equity Fut, Private Equity, Underlying Pooled Vehicle",ETF,Weak,1.5,Equity-International,International
IEF,iShares 7-10 Year Treasury Bond ETF,4,7.1,2019-09-26,2.5,0.0,1.0,0.0,0.2,5,A,No Complex Elements Observed,ETF,Strong,0.4,Fixed Income,LT US Treasury
ACWV,iShares Edge MSCI Min Vol Global ETF,3,6.3,2019-01-15,0.8,-2.3,0.0,0.0,4.6,3,A,FX Futures,ETF,Neutral,3.2,Equity-Global,Global
GIRPX,Goldman Sachs Emerging Markets Equity Insights Fund,5,5.2,2019-01-15,-2.2,0.0,-1.0,0.0,7.6,3,B,"Equity Fut, Leverage, Underlying Pooled Vehicle",MF,Weak,3.2,Equity-International,Emerging
IEI,iShares 3-7 Year Treasury Bond ETF,1,14.1,2019-03-22,2.5,0.0,1.0,0.0,2.0,8,A,No Complex Elements Observed,ETF,Strong,0.0,Fixed Income,ST US Treasury
GSINX,Goldman Sachs GQG Partners International Opportunities Fund,3,4.4,2019-09-04,1.6,0.0,0.0,0.0,5.7,5,,,MF,Positive,0.3,Equity-International,International
RPV,Invesco S&P 500 Pure Value ETF,4,3.3,2018-11-26,-2.4,-2.4,-1.0,0.0,3.8,5,A,Leverage,ETF,Weak,0.2,Equity-US,Value
USMV,iShares Edge MSCI Min Vol USA ETF,3,4.1,2018-11-26,1.5,-2.4,0.0,0.0,3.6,4,A,No Complex Elements Observed,ETF,Neutral,2.0,Equity-US,Minimum Volatility
PWGIX,Pax ESG Beta Quality Fund,2,5.9,2019-03-22,1.4,0.0,0.0,0.0,3.0,8,A,No Complex Elements Observed,MF,Neutral,0.0,Equity-US,Blend
AOGPX,AllianzGI Focused Growth Fund,2,5.6,2019-03-22,2.3,0.0,1.0,0.0,3.6,8,A,No Complex Elements Observed,MF,Strong,0.0,Equity-US,Large-cap
MGSIX,MFS Government Securities Fund,1,10.8,2020-03-03,2.5,0.0,1.0,0.0,2.2,8,C,"Leverage, Structured (ABS, MBS, CMBS)",MF,Strong,0.0,Fixed Income,Intermediate/Long Term Investment Grade
DCPIX,BNY Mellon Core Plus Fund,1,10.5,2020-03-03,0.0,0.0,0.0,0.0,3.4,8,,,MF,Neutral,0.0,Fixed Income,Intermediate/Long Term Investment Grade
CSVIX,Calvert Small Cap Fund,2,5.1,2019-03-22,0.0,0.0,0.0,0.0,3.4,8,B,"Equity Fut, Leverage, Total Return Swap, Underlying Pooled Vehicle",MF,Negative,0.0,Equity-US,Small Mid Cap
ACVKX,AC Alternatives Market Neutral Value Fund,3,3.2,2020-03-31,2.0,0.0,0.6,0.0,2.0,2,C,"Equity Fut, FX Forwards, Leverage, Structured (ABS, MBS, CMBS), Underlying Pooled Vehicle",MF,Strong,7.6,Alternatives,
PXH,Invesco FTSE RAFI Emerging Markets ETF,4,3.2,2019-11-18,-2.4,2.4,-1.0,1.0,7.8,3,B,"FX Forwards, Leverage, Underlying Pooled Vehicle",ETF,Weak,2.9,Equity-International,Emerging
FANUY,FANUC Corp,1,9.1,2020-04-15,1.3,0.0,0.0,0.0,5.6,8,,,Stock,Neutral,0.0,Equity-International,JN
VB,Vanguard Small-Cap ETF,2,4.5,2018-04-26,-1.2,-2.5,0.0,-1.0,4.2,2,B,"Equity Fut, Leverage, Total Return Swap",ETF,Negative,6.1,Equity-US,Small Mid Cap
ROK,Rockwell Automation Inc,1,9.0,2020-04-15,2.3,0.0,1.0,0.0,3.1,8,,,Stock,Strong,0.0,Equity-US,Large
FFIV,F5 Networks Inc,1,8.8,2020-04-15,2.4,0.0,1.0,0.0,3.1,8,,,Stock,Positive,0.0,Equity-US,Large
MDT,Medtronic PLC,4,2.2,2019-04-24,1.0,0.0,0.0,0.0,3.1,5,,,Stock,Positive,0.4,Equity-US,Sector
MNWIX,MFS Managed Wealth Fund,3,2.9,2020-03-03,2.4,0.0,1.0,0.0,2.8,8,C,"Equity Fut, Leverage, Option - Put, Underlying Pooled Vehicle",MF,Strong,0.0,Alternatives,
PPC,Pilgrims Pride Corp,1,8.5,2020-04-15,-2.4,0.0,-1.0,0.0,3.1,8,,,Stock,Negative,0.0,Equity-US,Large
ADSK,Autodesk Inc,1,8.4,2020-04-15,2.4,0.0,1.0,0.0,3.1,8,,,Stock,Strong,0.0,Equity-US,Large
ACM,AECOM,1,8.4,2020-04-15,1.8,0.0,0.3,0.0,3.1,8,,,Stock,Strong,0.0,Equity-US,Large
TSM,Taiwan Semiconductor Manufacturing Co Ltd,1,8.2,2020-04-15,2.1,0.0,0.9,0.0,3.1,8,,,Stock,Strong,0.0,Equity-International,TA
ESGD,iShares Trust iShares ESG MSCI EAFE ETF,2,4.1,2019-03-22,-2.1,0.0,-0.9,0.0,6.2,8,,,ETF,Weak,0.0,Equity-International,International
MFIIX,MFS Strategic Income Fund,1,8.1,2020-03-03,1.8,0.0,0.3,0.0,1.9,8,B,"Bank Loan, Leverage, Structured (ABS, MBS, CMBS), Underlying Pooled Vehicle",MF,Strong,0.0,Fixed Income,Intermediate/Long Term No Restriction
ADBE,Adobe Inc,1,8.1,2020-04-15,2.4,0.0,1.0,0.0,3.1,8,,,Stock,Strong,0.0,Equity-US,Large
DIFIX,MFS Diversified Income Fund,2,4.0,2018-06-12,-2.2,-2.4,-1.0,-1.0,2.9,8,C,"Bank Loan, Leverage, Structured (ABS, MBS, CMBS), Underlying Pooled Vehicle",MF,Weak,0.0,Allocation,Allocation
DMBVX,BNY Mellon Opportunistic Municipal Securities Fund,1,8.0,2020-03-03,2.0,0.0,0.8,0.0,2.0,8,,,MF,Strong,0.0,Fixed Income,Long Term (>10 yr) Investment Grade
TCEHY,Tencent Holdings Ltd,1,8.0,2020-04-15,2.4,0.0,1.0,0.0,7.2,8,,,Stock,Strong,0.0,Equity-International,Emerging
BAC,Bank of America Corp,1,7.9,2020-04-15,-1.7,0.0,-0.1,0.0,3.1,8,,,Stock,Negative,0.0,Equity-US,Blend
ATVI,Activision Blizzard Inc,1,7.8,2020-04-15,2.4,0.0,1.0,0.0,3.1,8,,,Stock,Strong,0.0,Equity-US,Large
PDBZX,PGIM Total Return Bond Fund,1,7.8,2020-02-20,1.9,0.0,0.5,0.0,1.9,4,E,"Bank Loan, Crdt Dflt Swap, FX Forwards, Int Rate Swap, FI Futures, Leverage, Structured (ABS, MBS, CMBS), Swaptions, Total Return Swap, Treas Futures, Underlying Pooled Vehicle",MF,Strong,1.0,Fixed Income,Core Plus
IWD,iShares Russell 1000 Value ETF,1,7.8,2019-05-21,-1.0,-2.4,0.0,0.0,3.3,8,A,Equity Fut,ETF,Neutral,0.0,Equity-US,Value
BABA,Alibaba Group Holding Ltd,4,1.9,2020-04-23,1.6,0.0,0.1,0.0,7.2,6,,,Stock,Strong,0.1,Equity-International,CH
VRTX,Vertex Pharmaceuticals Inc,1,7.4,2020-04-15,2.4,0.0,1.0,0.0,3.1,8,,,Stock,Strong,0.0,Equity-US,Large
MTLIX,MFS Municipal Limited Maturity Fund,1,7.2,2020-03-03,-0.8,0.0,0.0,0.0,2.5,8,A,Leverage,MF,Neutral,0.0,Fixed Income,Short/Intermediate Term Investment Grade
MIMIX,MFS Municipal Income Fund,1,6.9,2020-03-03,-2.1,0.0,-1.0,0.0,2.3,8,A,Leverage,MF,Weak,0.0,Fixed Income,Fixed Income-U.S.-municipal bonds
SBUX,Starbucks Corp,3,2.1,2019-03-21,1.7,0.0,0.2,0.0,3.1,5,,,Stock,Positive,0.3,Equity-US,Blend
MSFT,Microsoft Corp,2,3.1,2019-03-21,2.4,0.0,1.0,0.0,3.1,5,,,Stock,Strong,0.2,Equity-US,Blend
PARMX,Parnassus Mid Cap Fund,1,6.2,2019-05-21,-0.6,0.0,0.0,0.0,3.7,8,A,No Complex Elements Observed,MF,Neutral,0.0,Equity-US,Small Mid Cap
XT,iShares Exponential Technologies ETF,2,2.9,2019-01-15,1.5,-2.4,0.0,0.0,3.4,4,A,No Complex Elements Observed,ETF,Positive,0.9,Equity-Global,Global
WSBIX,Wells Fargo Short-Term Municipal Bond Fund,1,5.6,2018-11-26,-0.4,0.0,0.0,0.0,1.9,5,B,"Structured (ABS, MBS, CMBS), Underlying Pooled Vehicle",MF,Neutral,0.3,Fixed Income,Fixed Income-US-Investment Grade
ROBO,ROBO Global Robotics and Automation Index ETF,2,2.8,2019-05-21,1.9,0.0,0.5,0.0,2.6,8,A,No Complex Elements Observed,ETF,Strong,0.0,Equity-Global,Sector
JEMSX,JPMorgan Emerging Markets Equity Fund,1,5.1,2019-04-24,-1.6,0.0,-0.0,0.0,7.6,8,A,No Complex Elements Observed,MF,Negative,0.0,Equity-International,Emerging
PG,Procter & Gamble Co/The,2,2.3,2019-05-21,2.3,0.0,1.0,0.0,3.1,8,,,Stock,Strong,0.0,Equity-US,Blend
OIDYX,Invesco Oppenheimer International Diversified Fund,1,4.5,2019-04-24,-1.3,0.0,0.0,0.0,5.7,8,C,"FX Forwards, Leverage, Private Equity, Underlying Pooled Vehicle",MF,Neutral,0.0,Equity-International,Developed
FTCS,First Trust Capital Strength ETF,1,4.4,2019-06-27,1.6,0.0,0.0,0.0,3.9,8,A,Leverage,ETF,Positive,0.0,Equity-US,Quality
SPLV,Invesco S&P 500 Low Volatility ETF,1,4.2,2019-01-15,1.1,0.0,0.0,0.0,3.3,4,A,Leverage,ETF,Neutral,1.6,Equity-US,Blend
FNDX,Schwab Fundamental U.S. Large Company Index ETF,1,4.0,2018-11-26,-0.6,-2.4,0.0,-1.0,3.5,5,A,Equity Fut,ETF,Neutral,0.2,Equity-US,Value
SHSSX,BlackRock Health Sciences Opportunities Portfolio,1,4.0,2018-09-21,2.3,-2.4,1.0,-1.0,5.2,4,B,"FX Forwards, Leverage",MF,Strong,0.5,Equity-US,Sector
ILMN,Illumina Inc,2,2.0,2020-04-23,2.3,0.0,1.0,0.0,3.1,8,,,Stock,Strong,0.0,Equity-US,Blend
STT,State Street Corp,2,1.9,2020-02-20,1.0,0.0,0.0,0.0,3.1,8,,,Stock,Positive,0.0,Equity-US,Large
IJR,iShares Core S&P Small-Cap ETF,1,3.5,2019-04-24,-2.1,-2.5,-0.9,-1.0,3.7,8,A,Equity Fut,ETF,Weak,0.0,Equity-US,Small Mid Cap
HJPNX,Hennessy Japan Fund,1,3.4,2018-08-02,-0.3,-2.2,0.0,0.0,5.3,5,A,Leverage,MF,Neutral,0.4,Equity-International,Japan
SGIIX,First Eagle Global Fund,1,3.3,2019-09-26,-1.4,0.3,0.0,1.0,4.0,3,B,"Commodity Fut, Fgn Subsidiary",MF,Neutral,4.6,Allocation,Global
K,Kellogg Co,1,2.5,2019-06-27,2.2,0.0,1.0,0.0,3.2,8,,,Stock,Strong,0.0,Equity-US,Large
D,Dominion Energy Inc,1,2.1,2019-06-27,2.3,0.0,1.0,0.0,3.1,8,,,Stock,Strong,0.0,Equity-US,Large
CSX,CSX Corp,1,2.0,2018-11-26,2.2,0.0,1.0,0.0,3.1,6,,,Stock,Positive,0.1,Equity-US,Blend
WFC,Wells Fargo & Co,1,1.9,2020-03-31,-2.4,0.0,-1.0,0.0,3.1,8,,,Stock,Weak,0.0,Equity-US,Large
ACIIX,American Century Equity Income Fund,2,10.6,2019-01-29,-0.4,0.0,0.0,0.0,3.4,5,,,MF,Neutral,0.2,Equity-US,Value
SCHM,Schwab U.S. Mid-Cap ETF,1,6.9,2019-05-21,-0.9,0.0,0.0,0.0,4.1,8,A,Underlying Pooled Vehicle,ETF,Negative,0.0,Equity-US,Small Mid Cap
VWO,Vanguard FTSE Emerging Markets ETF,1,6.6,2019-05-21,-2.0,2.1,-0.8,1.0,7.2,8,B,"Equity Fut, Leverage, Total Return Swap, Underlying Pooled Vehicle",ETF,Weak,0.0,Equity-International,Emerging
