{ "factor_names": {
  "0": "Tracking Error",
  "1": "Cost Focus",
  "2": "Tax Sensitivity",
  "3": "Tactical Response",
  "4": "Maximum Mutual Funds",
  "5": "Maximum Holdings"
},
  "factor_labels":{
    "0": ["Index","","Take Risks"],
    "1": ["Costs Below 20 bp","50 bp","Costs Below 100 bp"],
    "2": ["QUAL","NQ","TS"],
    "3": ["None","Moderate","High"],
    "4": ["No mutual funds", "Blend", "All Mutual Funds"],
    "5":  ["3","10","25"]
  },

  "positions": {
    "new": [
      {"id":0, "position": 0,"restrict_left":0,"restrict_right":10,"value":5},
      {"id":1, "position": 1,"restrict_left":0,"restrict_right":10,"value":5},
      {"id":2, "position": 5,"restrict_left":0,"restrict_right":10,"value":0},
      {"id":3, "position": 3,"restrict_left":0,"restrict_right":10,"value":5},
      {"id":4, "position": 4,"restrict_left":0,"restrict_right":10,"value":5},
      {"id":5, "position": 2,"restrict_left":0,"restrict_right":10,"value":10}
    ],
  },

  "sets": {
    "Defaults": [
      {"id":0, "position": 0,"restrict_left":0,"restrict_right":10,"value":5},
      {"id":1, "position": 1,"restrict_left":0,"restrict_right":10,"value":5},
      {"id":2, "position": 5,"restrict_left":0,"restrict_right":10,"value":0},
      {"id":3, "position": 3,"restrict_left":0,"restrict_right":10,"value":5},
      {"id":4, "position": 4,"restrict_left":0,"restrict_right":10,"value":5},
      {"id":5, "position": 2,"restrict_left":0,"restrict_right":10,"value":10}
    ],
    "Maximum Returns": [
      {"id":0, "position": 0,"restrict_left":0,"restrict_right":10,"value":10},
      {"id":1, "position": 1,"restrict_left":0,"restrict_right":10,"value":10},
      {"id":2, "position": 5,"restrict_left":0,"restrict_right":10,"value":0},
      {"id":3, "position": 3,"restrict_left":0,"restrict_right":10,"value":10},
      {"id":4, "position": 4,"restrict_left":0,"restrict_right":10,"value":10},
      {"id":5, "position": 2,"restrict_left":0,"restrict_right":10,"value":10}
    ]
  }
}


